{
    "key": "com.presaleshipchat.webhooks",
    "name": "Presales Bot",
    "description": "A simple add-on that responds to messages",
    "vendor": {
        "name": "<YOUR NAME>",
        "url": "https://www.<YOUR URL>.com"
    },
    "links": {
        "self": "https://<YOUR DRUPAL SITE URL>hipchat/capabilities.json",
        "homepage": "https://<YOUR URL>.com"
    },
    "capabilities": {
        "hipchatApiConsumer": {
            "scopes": [
                "send_notification"
            ],
            "avatar": {
               "url": "<LINK TO AVATAR>"
            },
            "fromName": "Stephen Fry"
        },
        "installable": {
            "callbackUrl": "https://<YOUR DRUPAL SITE URL>/hipchat/installation"
        },
        "webhook": {
            "url": "http://<YOUR DRUPAL SITE URL>/hipchat/message",
            "pattern": "^.*$",
            "event": "room_message",
            "name": "Respond to a message"
        }
    }
}
